^C:\USERS\KUHNS\ONEDRIVE - FOX VALLEY TECHNICAL COLLEGE\FVTC\61135 C++\SHK.EXER2.CARDS\SHK.EXER2.CARDS\MAIN.CPP
C:\USERS\KUHNS\ONEDRIVE - FOX VALLEY TECHNICAL COLLEGE\FVTC\61135 C++\SHK.EXER2.CARDS\SHK.EXER2.CARDS\DEBUG\VC142.PDB
C:\USERS\KUHNS\ONEDRIVE - FOX VALLEY TECHNICAL COLLEGE\FVTC\61135 C++\SHK.EXER2.CARDS\SHK.EXER2.CARDS\DEBUG\VC142.IDB
C:\USERS\KUHNS\ONEDRIVE - FOX VALLEY TECHNICAL COLLEGE\FVTC\61135 C++\SHK.EXER2.CARDS\SHK.EXER2.CARDS\DEBUG\MAIN.OBJ
